%YAML 1.1
%TAG !u! tag:unity3d.com,2011:
--- !u!114 &11400000
MonoBehaviour:
  m_ObjectHideFlags: 0
  m_CorrespondingSourceObject: {fileID: 0}
  m_PrefabInstance: {fileID: 0}
  m_PrefabAsset: {fileID: 0}
  m_GameObject: {fileID: 0}
  m_Enabled: 1
  m_EditorHideFlags: 0
  m_Script: {fileID: 11500000, guid: 13b75c95f34a00d4e8c04f76b73312e6, type: 3}
  m_Name: Water Animated
  m_EditorClassIdentifier: 
  m_AnimatedSprites:
  - {fileID: 21300000, guid: 2555f404506660042944801e604ae782, type: 3}
  - {fileID: 21300000, guid: ad5ba5085fc646c4c9e737cfe1f860c1, type: 3}
  - {fileID: 21300000, guid: 65c75183a6c8beb47bb0cc6ff20ee48c, type: 3}
  - {fileID: 21300000, guid: 22a149b32d216ca449c105005e6cf73c, type: 3}
  - {fileID: 21300000, guid: 30bd945ebc1af7a4d89a10271cce64d3, type: 3}
  - {fileID: 21300000, guid: 8c45f43c172269a43be0f7ae81c09c7b, type: 3}
  - {fileID: 21300000, guid: a08e7d5756e97314c8124a7d93d8d748, type: 3}
  - {fileID: 21300000, guid: 30dcef64afd847e49874af90e4260565, type: 3}
  - {fileID: 21300000, guid: b1e90afccf822704da75bdb6b381559a, type: 3}
  - {fileID: 21300000, guid: 3c3d0a551bf0a7a459898a395f5dd21c, type: 3}
  - {fileID: 21300000, guid: e4c60e2f2f89ac74b9a0726c38578931, type: 3}
  - {fileID: 21300000, guid: ca55c671d6a0dd64eb26e2c503bf74c7, type: 3}
  - {fileID: 21300000, guid: b6663c435cbf44043968cc512462534b, type: 3}
  - {fileID: 21300000, guid: 94f50ba0351c67440a493a41651cb834, type: 3}
  - {fileID: 21300000, guid: c8db2ccc4e419ea4aac7a6d44fefcf39, type: 3}
  - {fileID: 21300000, guid: 3329571b1b8c0d34b83f9175eec19727, type: 3}
  - {fileID: 21300000, guid: 2b9c729e026b0514b8dde1680d8a7e90, type: 3}
  m_MinSpeed: 20
  m_MaxSpeed: 20
  m_AnimationStartTime: 0
  m_AnimationStartFrame: 0
  m_TileColliderType: 1
